{
  "schemaVersion": 1,
  "id": "solidworlds",
  "version": "${version}",
  "name": "Solid Worlds Mod",
  "description": "Generate solid worlds, without caves, ravines, lakes and/or mineshaft.",
  "authors": [
    "ifcifc"
  ],
  "contact": {
    "homepage": "https://gitlab.com/ifcifc94/solidworldsmod",
    "sources": "https://gitlab.com/ifcifc94/solidworldsmod"
  },
  "license": "GNU LGPL V3",
  "icon": "assets/solidworlds/icon.png",
  "environment": "*",
  "entrypoints": {
    "main": [
      "com.ifcifc.solidworlds.MainMod"
    ],
    "client": [
    ],
    "modmenu": [
      "com.ifcifc.solidworlds.ConfigMenu.ModMenuEntry"
    ]
  },
  "mixins": [
    "solidworlds.mixins.json"
  ],
  "depends": {
    "minecraft": "1.16.x",
    "fabricloader": ">=0.7.1",
    "fabric": ">=0.18.0"
  },
  "suggests": {
    "flamingo": "*"
  },
  "custom": {
    "modmenu:clientsideOnly": true
  }
}